<?xml version="1.0" encoding="UTF-8"?>
<!DOCTYPE svg PUBLIC "-//W3C//DTD SVG 1.1//EN" "http://www.w3.org/Graphics/SVG/1.1/DTD/svg11.dtd">
<!-- Creator: CorelDRAW 2017 -->
<svg xmlns="http://www.w3.org/2000/svg" xml:space="preserve" width="40px" height="40px" version="1.1" style="shape-rendering:geometricPrecision; text-rendering:geometricPrecision; image-rendering:optimizeQuality; fill-rule:evenodd; clip-rule:evenodd"
viewBox="0 0 384.25 384.25"
 xmlns:xlink="http://www.w3.org/1999/xlink">
 <defs>
  <style type="text/css">
   <![CDATA[
    .fil0 {fill:#FEFEFE}
    .fil1 {fill:#858582;fill-rule:nonzero}
   ]]>
  </style>
 </defs>
 <g id="Layer_x0020_1">
  <metadata id="CorelCorpID_0Corel-Layer"/>
  <path class="fil0" d="M192.28 14.54c97.99,0 177.42,79.69 177.42,178 0,98.31 -79.43,178.01 -177.42,178.01 -97.99,0 -177.42,-79.7 -177.42,-178.01 0,-98.31 79.43,-178 177.42,-178z"/>
  <g id="_2616633235776">
   <path class="fil1" d="M192.12 0c-105.93,0 -192.12,86.18 -192.12,192.12 0,105.94 86.19,192.13 192.12,192.13 105.94,0 192.13,-86.19 192.13,-192.13 0,-105.94 -86.19,-192.12 -192.13,-192.12zm0 369.47c-97.78,0 -177.34,-79.56 -177.34,-177.35 0,-97.78 79.56,-177.34 177.34,-177.34 97.79,0 177.35,79.56 177.35,177.34 0,97.79 -79.56,177.35 -177.35,177.35z"/>
   <path class="fil1" d="M288.18 184.73l-192.12 0c-4.08,0 -7.39,3.31 -7.39,7.39 0,4.09 3.31,7.39 7.39,7.39l192.12 0c4.08,0 7.4,-3.3 7.4,-7.39 0,-4.08 -3.32,-7.39 -7.4,-7.39z"/>
  </g>
 </g>
</svg>
